^C:\USERS\ADMINISTRATOR\DESKTOP\SRC_12_23\SRC\NFNETUNITTEST\AUTOREPORT\FORM1.RESX|C:\USERS\ADMINISTRATOR\DESKTOP\SRC_12_23\SRC\NFNETUNITTEST\B·L\子午线收敛角计算.RESX|C:\USERS\ADMINISTRATOR\DESKTOP\SRC_12_23\SRC\NFNETUNITTEST\DATAACCOUNT\DATAACC.RESX|C:\USERS\ADMINISTRATOR\DESKTOP\SRC_12_23\SRC\NFNETUNITTEST\DATAACCOUNT\数据库连接测试窗体.RESX|C:\USERS\ADMINISTRATOR\DESKTOP\SRC_12_23\SRC\NFNETUNITTEST\DBU\FORM1.RESX|C:\USERS\ADMINISTRATOR\DESKTOP\SRC_12_23\SRC\NFNETUNITTEST\DTUSERVER\FIXEDINCLINOMETER_LOGWIN.RESX|C:\USERS\ADMINISTRATOR\DESKTOP\SRC_12_23\SRC\NFNETUNITTEST\DTUSERVER\FORM1.RESX|C:\USERS\ADMINISTRATOR\DESKTOP\SRC_12_23\SRC\NFNETUNITTEST\DTUSERVER\FORM2.RESX|C:\USERS\ADMINISTRATOR\DESKTOP\SRC_12_23\SRC\NFNETUNITTEST\DTUSERVER\HXYL_LOGWIN.RESX|C:\USERS\ADMINISTRATOR\DESKTOP\SRC_12_23\SRC\NFNETUNITTEST\DTUSERVER\LOGWIN.RESX|C:\USERS\ADMINISTRATOR\DESKTOP\SRC_12_23\SRC\NFNETUNITTEST\DTUSERVER\NGN_LOGWIN.RESX|C:\USERS\ADMINISTRATOR\DESKTOP\SRC_12_23\SRC\NFNETUNITTEST\FORM1.RESX|C:\USERS\ADMINISTRATOR\DESKTOP\SRC_12_23\SRC\NFNETUNITTEST\GTDATADESCODE\DOGWATCH.RESX|C:\USERS\ADMINISTRATOR\DESKTOP\SRC_12_23\SRC\NFNETUNITTEST\GTDATADESCODE\LOGWIN.RESX|C:\USERS\ADMINISTRATOR\DESKTOP\SRC_12_23\SRC\NFNETUNITTEST\HXYLREC\FORM1.RESX|C:\USERS\ADMINISTRATOR\DESKTOP\SRC_12_23\SRC\NFNETUNITTEST\IISVERSION\IISVERSIONUPD.RESX|C:\USERS\ADMINISTRATOR\DESKTOP\SRC_12_23\SRC\NFNETUNITTEST\MDBREC\MDBREC.RESX|C:\USERS\ADMINISTRATOR\DESKTOP\SRC_12_23\SRC\NFNETUNITTEST\MDBREC\OXREC.RESX|C:\USERS\ADMINISTRATOR\DESKTOP\SRC_12_23\SRC\NFNETUNITTEST\MESSGSEND\MAILSEND.RESX|C:\USERS\ADMINISTRATOR\DESKTOP\SRC_12_23\SRC\NFNETUNITTEST\NGN\LOGWIN.RESX|C:\USERS\ADMINISTRATOR\DESKTOP\SRC_12_23\SRC\NFNETUNITTEST\POINTTHECLOCK\POINTTHECLOCK.RESX|C:\USERS\ADMINISTRATOR\DESKTOP\SRC_12_23\SRC\NFNETUNITTEST\SGALARM\FORM1.RESX|C:\USERS\ADMINISTRATOR\DESKTOP\SRC_12_23\SRC\NFNETUNITTEST\VERSIONCONTROL\PROGRAMBAGCHOICE.RESX|C:\USERS\ADMINISTRATOR\DESKTOP\SRC_12_23\SRC\NFNETUNITTEST\VERSIONCONTROL\VERSIONCONTROL.RESX|C:\USERS\ADMINISTRATOR\DESKTOP\SRC_12_23\SRC\NFNETUNITTEST\XMDATAAUTOALARM\FORM1.RESX
C:\USERS\ADMINISTRATOR\DESKTOP\SRC_12_23\SRC\NFNETUNITTEST\OBJ\X86\DEBUG\NFNETUNITTEST.AUTOREPORT.FORM1.RESOURCES
C:\USERS\ADMINISTRATOR\DESKTOP\SRC_12_23\SRC\NFNETUNITTEST\OBJ\X86\DEBUG\NFNETUNITTEST.B_L.子午线收敛角计算.RESOURCES
C:\USERS\ADMINISTRATOR\DESKTOP\SRC_12_23\SRC\NFNETUNITTEST\OBJ\X86\DEBUG\NFNETUNITTEST.DATAACCOUNT.DATAACC.RESOURCES
C:\USERS\ADMINISTRATOR\DESKTOP\SRC_12_23\SRC\NFNETUNITTEST\OBJ\X86\DEBUG\NFNETUNITTEST.DATAACCOUNT.数据库连接测试窗体.RESOURCES
C:\USERS\ADMINISTRATOR\DESKTOP\SRC_12_23\SRC\NFNETUNITTEST\OBJ\X86\DEBUG\NFNETUNITTEST.DBU.FORM1.RESOURCES
C:\USERS\ADMINISTRATOR\DESKTOP\SRC_12_23\SRC\NFNETUNITTEST\OBJ\X86\DEBUG\NFNETUNITTEST.DTUSERVER.FORM2.RESOURCES
C:\USERS\ADMINISTRATOR\DESKTOP\SRC_12_23\SRC\NFNETUNITTEST\OBJ\X86\DEBUG\NFNETUNITTEST.DTUSERVER.LOGWIN.RESOURCES
C:\USERS\ADMINISTRATOR\DESKTOP\SRC_12_23\SRC\NFNETUNITTEST\OBJ\X86\DEBUG\NFNETUNITTEST.DTUSERVER.FIXEDINCLINOMETER_LOGWIN.RESOURCES
C:\USERS\ADMINISTRATOR\DESKTOP\SRC_12_23\SRC\NFNETUNITTEST\OBJ\X86\DEBUG\NFNETUNITTEST.DTUSERVER.NGN_LOGWIN.RESOURCES
C:\USERS\ADMINISTRATOR\DESKTOP\SRC_12_23\SRC\NFNETUNITTEST\OBJ\X86\DEBUG\NFNETUNITTEST.DTUSERVER.HXYL_LOGWIN.RESOURCES
C:\USERS\ADMINISTRATOR\DESKTOP\SRC_12_23\SRC\NFNETUNITTEST\OBJ\X86\DEBUG\NFNETUNITTEST.FORM1.RESOURCES
C:\USERS\ADMINISTRATOR\DESKTOP\SRC_12_23\SRC\NFNETUNITTEST\OBJ\X86\DEBUG\NFNETUNITTEST.DTUSERVER.FORM1.RESOURCES
C:\USERS\ADMINISTRATOR\DESKTOP\SRC_12_23\SRC\NFNETUNITTEST\OBJ\X86\DEBUG\NFNETUNITTEST.GTDATADESCODE.DOGWATCH.RESOURCES
C:\USERS\ADMINISTRATOR\DESKTOP\SRC_12_23\SRC\NFNETUNITTEST\OBJ\X86\DEBUG\NFNETUNITTEST.GTDATADESCODE.LOGWIN.RESOURCES
C:\USERS\ADMINISTRATOR\DESKTOP\SRC_12_23\SRC\NFNETUNITTEST\OBJ\X86\DEBUG\NFNETUNITTEST.HXYLREC.FORM1.RESOURCES
C:\USERS\ADMINISTRATOR\DESKTOP\SRC_12_23\SRC\NFNETUNITTEST\OBJ\X86\DEBUG\NFNETUNITTEST.IISVERSION.IISVERSIONUPD.RESOURCES
C:\USERS\ADMINISTRATOR\DESKTOP\SRC_12_23\SRC\NFNETUNITTEST\OBJ\X86\DEBUG\NFNETUNITTEST.MDBREC.HXYLREC.RESOURCES
C:\USERS\ADMINISTRATOR\DESKTOP\SRC_12_23\SRC\NFNETUNITTEST\OBJ\X86\DEBUG\NFNETUNITTEST.OXREC.OXREC.RESOURCES
C:\USERS\ADMINISTRATOR\DESKTOP\SRC_12_23\SRC\NFNETUNITTEST\OBJ\X86\DEBUG\NFNETUNITTEST.MESSGSEND.MAILSEND.RESOURCES
C:\USERS\ADMINISTRATOR\DESKTOP\SRC_12_23\SRC\NFNETUNITTEST\OBJ\X86\DEBUG\NFNETUNITTEST.NGN.LOGWIN.RESOURCES
C:\USERS\ADMINISTRATOR\DESKTOP\SRC_12_23\SRC\NFNETUNITTEST\OBJ\X86\DEBUG\NFNETUNITTEST.POINTTHECLOCK.POINTTHECLOCK.RESOURCES
C:\USERS\ADMINISTRATOR\DESKTOP\SRC_12_23\SRC\NFNETUNITTEST\OBJ\X86\DEBUG\NFNETUNITTEST.SGALARM.FORM1.RESOURCES
C:\USERS\ADMINISTRATOR\DESKTOP\SRC_12_23\SRC\NFNETUNITTEST\OBJ\X86\DEBUG\NFNETUNITTEST.VERSIONCONTROL.PROGRAMBAGCHOICE.RESOURCES
C:\USERS\ADMINISTRATOR\DESKTOP\SRC_12_23\SRC\NFNETUNITTEST\OBJ\X86\DEBUG\NFNETUNITTEST.VERSIONCONTROL.VERSIONCONTROL.RESOURCES
C:\USERS\ADMINISTRATOR\DESKTOP\SRC_12_23\SRC\NFNETUNITTEST\OBJ\X86\DEBUG\NFNETUNITTEST.XMDATAAUTOALARM.FORM1.RESOURCES
